^C:\USERS\RKDQM\ONEDRIVE\바탕 화면\11_2015182001\SIMPLEGAME\SIMPLEGAME\STDAFX.CPP
/c /Zi /nologo /W3 /WX- /diagnostics:classic /sdl /O2 /Oi /GL /D NDEBUG /D _CONSOLE /D _UNICODE /D UNICODE /Gm- /EHsc /MD /GS /Gy /fp:precise /Zc:wchar_t /Zc:forScope /Zc:inline /Yc"stdafx.h" /Fp"X64\RELEASE\SIMPLEGAME.PCH" /Fo"X64\RELEASE\\" /Fd"X64\RELEASE\VC141.PDB" /Gd /TP /FC C:\USERS\RKDQM\ONEDRIVE\바탕 화면\11_2015182001\SIMPLEGAME\SIMPLEGAME\STDAFX.CPP
^C:\USERS\RKDQM\ONEDRIVE\바탕 화면\11_2015182001\SIMPLEGAME\SIMPLEGAME\LOADPNG.CPP
/c /Zi /nologo /W3 /WX- /diagnostics:classic /sdl /O2 /Oi /GL /D NDEBUG /D _CONSOLE /D _UNICODE /D UNICODE /Gm- /EHsc /MD /GS /Gy /fp:precise /Zc:wchar_t /Zc:forScope /Zc:inline /Yu"stdafx.h" /Fp"X64\RELEASE\SIMPLEGAME.PCH" /Fo"X64\RELEASE\\" /Fd"X64\RELEASE\VC141.PDB" /Gd /TP /FC C:\USERS\RKDQM\ONEDRIVE\바탕 화면\11_2015182001\SIMPLEGAME\SIMPLEGAME\LOADPNG.CPP
^C:\USERS\RKDQM\ONEDRIVE\바탕 화면\11_2015182001\SIMPLEGAME\SIMPLEGAME\OBJECT.CPP
/c /Zi /nologo /W3 /WX- /diagnostics:classic /sdl /O2 /Oi /GL /D NDEBUG /D _CONSOLE /D _UNICODE /D UNICODE /Gm- /EHsc /MD /GS /Gy /fp:precise /Zc:wchar_t /Zc:forScope /Zc:inline /Yu"stdafx.h" /Fp"X64\RELEASE\SIMPLEGAME.PCH" /Fo"X64\RELEASE\\" /Fd"X64\RELEASE\VC141.PDB" /Gd /TP /FC C:\USERS\RKDQM\ONEDRIVE\바탕 화면\11_2015182001\SIMPLEGAME\SIMPLEGAME\OBJECT.CPP
^C:\USERS\RKDQM\ONEDRIVE\바탕 화면\11_2015182001\SIMPLEGAME\SIMPLEGAME\PHYSICS.CPP
/c /Zi /nologo /W3 /WX- /diagnostics:classic /sdl /O2 /Oi /GL /D NDEBUG /D _CONSOLE /D _UNICODE /D UNICODE /Gm- /EHsc /MD /GS /Gy /fp:precise /Zc:wchar_t /Zc:forScope /Zc:inline /Yu"stdafx.h" /Fp"X64\RELEASE\SIMPLEGAME.PCH" /Fo"X64\RELEASE\\" /Fd"X64\RELEASE\VC141.PDB" /Gd /TP /FC C:\USERS\RKDQM\ONEDRIVE\바탕 화면\11_2015182001\SIMPLEGAME\SIMPLEGAME\PHYSICS.CPP
^C:\USERS\RKDQM\ONEDRIVE\바탕 화면\11_2015182001\SIMPLEGAME\SIMPLEGAME\RENDERER.CPP
/c /Zi /nologo /W3 /WX- /diagnostics:classic /sdl /O2 /Oi /GL /D NDEBUG /D _CONSOLE /D _UNICODE /D UNICODE /Gm- /EHsc /MD /GS /Gy /fp:precise /Zc:wchar_t /Zc:forScope /Zc:inline /Yu"stdafx.h" /Fp"X64\RELEASE\SIMPLEGAME.PCH" /Fo"X64\RELEASE\\" /Fd"X64\RELEASE\VC141.PDB" /Gd /TP /FC C:\USERS\RKDQM\ONEDRIVE\바탕 화면\11_2015182001\SIMPLEGAME\SIMPLEGAME\RENDERER.CPP
^C:\USERS\RKDQM\ONEDRIVE\바탕 화면\11_2015182001\SIMPLEGAME\SIMPLEGAME\SIMPLEGAME.CPP
/c /Zi /nologo /W3 /WX- /diagnostics:classic /sdl /O2 /Oi /GL /D NDEBUG /D _CONSOLE /D _UNICODE /D UNICODE /Gm- /EHsc /MD /GS /Gy /fp:precise /Zc:wchar_t /Zc:forScope /Zc:inline /Yu"stdafx.h" /Fp"X64\RELEASE\SIMPLEGAME.PCH" /Fo"X64\RELEASE\\" /Fd"X64\RELEASE\VC141.PDB" /Gd /TP /FC C:\USERS\RKDQM\ONEDRIVE\바탕 화면\11_2015182001\SIMPLEGAME\SIMPLEGAME\SIMPLEGAME.CPP
^C:\USERS\RKDQM\ONEDRIVE\바탕 화면\11_2015182001\SIMPLEGAME\SIMPLEGAME\SOUND.CPP
/c /Zi /nologo /W3 /WX- /diagnostics:classic /sdl /O2 /Oi /GL /D NDEBUG /D _CONSOLE /D _UNICODE /D UNICODE /Gm- /EHsc /MD /GS /Gy /fp:precise /Zc:wchar_t /Zc:forScope /Zc:inline /Yu"stdafx.h" /Fp"X64\RELEASE\SIMPLEGAME.PCH" /Fo"X64\RELEASE\\" /Fd"X64\RELEASE\VC141.PDB" /Gd /TP /FC C:\USERS\RKDQM\ONEDRIVE\바탕 화면\11_2015182001\SIMPLEGAME\SIMPLEGAME\SOUND.CPP
^C:\USERS\RKDQM\ONEDRIVE\바탕 화면\11_2015182001\SIMPLEGAME\SIMPLEGAME\SCNMGR.CPP
/c /Zi /nologo /W3 /WX- /diagnostics:classic /sdl /O2 /Oi /GL /D NDEBUG /D _CONSOLE /D _UNICODE /D UNICODE /Gm- /EHsc /MD /GS /Gy /fp:precise /Zc:wchar_t /Zc:forScope /Zc:inline /Yu"stdafx.h" /Fp"X64\RELEASE\SIMPLEGAME.PCH" /Fo"X64\RELEASE\\" /Fd"X64\RELEASE\VC141.PDB" /Gd /TP /FC C:\USERS\RKDQM\ONEDRIVE\바탕 화면\11_2015182001\SIMPLEGAME\SIMPLEGAME\SCNMGR.CPP
