^C:\USERS\RKDQM\ONEDRIVE\바탕 화면\11_2015182001\SIMPLEGAME\SIMPLEGAME\X64\RELEASE\LOADPNG.OBJ|C:\USERS\RKDQM\ONEDRIVE\바탕 화면\11_2015182001\SIMPLEGAME\SIMPLEGAME\X64\RELEASE\OBJECT.OBJ|C:\USERS\RKDQM\ONEDRIVE\바탕 화면\11_2015182001\SIMPLEGAME\SIMPLEGAME\X64\RELEASE\PHYSICS.OBJ|C:\USERS\RKDQM\ONEDRIVE\바탕 화면\11_2015182001\SIMPLEGAME\SIMPLEGAME\X64\RELEASE\RENDERER.OBJ|C:\USERS\RKDQM\ONEDRIVE\바탕 화면\11_2015182001\SIMPLEGAME\SIMPLEGAME\X64\RELEASE\SCNMGR.OBJ|C:\USERS\RKDQM\ONEDRIVE\바탕 화면\11_2015182001\SIMPLEGAME\SIMPLEGAME\X64\RELEASE\SIMPLEGAME.OBJ|C:\USERS\RKDQM\ONEDRIVE\바탕 화면\11_2015182001\SIMPLEGAME\SIMPLEGAME\X64\RELEASE\SOUND.OBJ|C:\USERS\RKDQM\ONEDRIVE\바탕 화면\11_2015182001\SIMPLEGAME\SIMPLEGAME\X64\RELEASE\STDAFX.OBJ
C:\PROGRAM FILES (X86)\WINDOWS KITS\10\LIB\10.0.17763.0\UM\X64\KERNEL32.LIB
C:\PROGRAM FILES (X86)\WINDOWS KITS\10\LIB\10.0.17763.0\UM\X64\USER32.LIB
C:\PROGRAM FILES (X86)\WINDOWS KITS\10\LIB\10.0.17763.0\UM\X64\GDI32.LIB
C:\PROGRAM FILES (X86)\WINDOWS KITS\10\LIB\10.0.17763.0\UM\X64\WINSPOOL.LIB
C:\PROGRAM FILES (X86)\WINDOWS KITS\10\LIB\10.0.17763.0\UM\X64\COMDLG32.LIB
C:\PROGRAM FILES (X86)\WINDOWS KITS\10\LIB\10.0.17763.0\UM\X64\ADVAPI32.LIB
C:\PROGRAM FILES (X86)\WINDOWS KITS\10\LIB\10.0.17763.0\UM\X64\SHELL32.LIB
C:\PROGRAM FILES (X86)\WINDOWS KITS\10\LIB\10.0.17763.0\UM\X64\OLE32.LIB
C:\PROGRAM FILES (X86)\WINDOWS KITS\10\LIB\10.0.17763.0\UM\X64\OLEAUT32.LIB
C:\PROGRAM FILES (X86)\WINDOWS KITS\10\LIB\10.0.17763.0\UM\X64\UUID.LIB
C:\PROGRAM FILES (X86)\WINDOWS KITS\10\LIB\10.0.17763.0\UM\X64\ODBC32.LIB
C:\PROGRAM FILES (X86)\WINDOWS KITS\10\LIB\10.0.17763.0\UM\X64\ODBCCP32.LIB
C:\USERS\RKDQM\ONEDRIVE\바탕 화면\11_2015182001\SIMPLEGAME\SIMPLEGAME\DEPENDENCIES\X64\FREEGLUT.LIB
C:\USERS\RKDQM\ONEDRIVE\바탕 화면\11_2015182001\SIMPLEGAME\SIMPLEGAME\DEPENDENCIES\X64\GLEW32.LIB
C:\USERS\RKDQM\ONEDRIVE\바탕 화면\11_2015182001\SIMPLEGAME\SIMPLEGAME\X64\RELEASE\LOADPNG.OBJ
C:\USERS\RKDQM\ONEDRIVE\바탕 화면\11_2015182001\SIMPLEGAME\SIMPLEGAME\X64\RELEASE\OBJECT.OBJ
C:\USERS\RKDQM\ONEDRIVE\바탕 화면\11_2015182001\SIMPLEGAME\SIMPLEGAME\X64\RELEASE\PHYSICS.OBJ
C:\USERS\RKDQM\ONEDRIVE\바탕 화면\11_2015182001\SIMPLEGAME\SIMPLEGAME\X64\RELEASE\RENDERER.OBJ
C:\USERS\RKDQM\ONEDRIVE\바탕 화면\11_2015182001\SIMPLEGAME\SIMPLEGAME\X64\RELEASE\SCNMGR.OBJ
C:\USERS\RKDQM\ONEDRIVE\바탕 화면\11_2015182001\SIMPLEGAME\SIMPLEGAME\X64\RELEASE\SIMPLEGAME.OBJ
C:\USERS\RKDQM\ONEDRIVE\바탕 화면\11_2015182001\SIMPLEGAME\SIMPLEGAME\X64\RELEASE\SOUND.OBJ
C:\USERS\RKDQM\ONEDRIVE\바탕 화면\11_2015182001\SIMPLEGAME\SIMPLEGAME\X64\RELEASE\STDAFX.OBJ
C:\WINDOWS\GLOBALIZATION\SORTING\SORTDEFAULT.NLS
C:\PROGRAM FILES (X86)\MICROSOFT VISUAL STUDIO\2019\COMMUNITY\VC\TOOLS\MSVC\14.16.27023\BIN\HOSTX86\X64\C2.DLL
C:\PROGRAM FILES (X86)\MICROSOFT VISUAL STUDIO\2019\COMMUNITY\VC\TOOLS\MSVC\14.16.27023\LIB\X64\MSVCPRT.LIB
C:\PROGRAM FILES (X86)\MICROSOFT VISUAL STUDIO\2019\COMMUNITY\VC\TOOLS\MSVC\14.16.27023\LIB\X64\MSVCRT.LIB
C:\PROGRAM FILES (X86)\MICROSOFT VISUAL STUDIO\2019\COMMUNITY\VC\TOOLS\MSVC\14.16.27023\LIB\X64\OLDNAMES.LIB
C:\USERS\RKDQM\ONEDRIVE\바탕 화면\11_2015182001\SIMPLEGAME\SIMPLEGAME\DEPENDENCIES\X64\IRRKLANG.LIB
C:\PROGRAM FILES (X86)\WINDOWS KITS\10\LIB\10.0.17763.0\UM\X64\GLU32.LIB
C:\PROGRAM FILES (X86)\WINDOWS KITS\10\LIB\10.0.17763.0\UM\X64\OPENGL32.LIB
C:\PROGRAM FILES (X86)\WINDOWS KITS\10\LIB\10.0.17763.0\UM\X64\WINMM.LIB
C:\PROGRAM FILES (X86)\MICROSOFT VISUAL STUDIO\2019\COMMUNITY\VC\TOOLS\MSVC\14.16.27023\LIB\X64\VCRUNTIME.LIB
C:\PROGRAM FILES (X86)\WINDOWS KITS\10\LIB\10.0.17763.0\UCRT\X64\UCRT.LIB
C:\PROGRAM FILES (X86)\MICROSOFT VISUAL STUDIO\2019\COMMUNITY\VC\TOOLS\MSVC\14.16.27023\BIN\HOSTX86\X64\1042\LINKUI.DLL
C:\PROGRAM FILES (X86)\WINDOWS KITS\10\BIN\10.0.17763.0\X86\RC.EXE
C:\PROGRAM FILES (X86)\MICROSOFT VISUAL STUDIO\2019\COMMUNITY\VC\TOOLS\MSVC\14.16.27023\BIN\HOSTX86\X86\CVTRES.EXE
C:\WINDOWS\SYSTEM32\TZRES.DLL
