^C:\USERS\RKDQM\ONEDRIVE\바탕 화면\11_2015182001\SIMPLEGAME\SIMPLEGAME\X64\DEBUG\LOADPNG.OBJ|C:\USERS\RKDQM\ONEDRIVE\바탕 화면\11_2015182001\SIMPLEGAME\SIMPLEGAME\X64\DEBUG\OBJECT.OBJ|C:\USERS\RKDQM\ONEDRIVE\바탕 화면\11_2015182001\SIMPLEGAME\SIMPLEGAME\X64\DEBUG\PHYSICS.OBJ|C:\USERS\RKDQM\ONEDRIVE\바탕 화면\11_2015182001\SIMPLEGAME\SIMPLEGAME\X64\DEBUG\RENDERER.OBJ|C:\USERS\RKDQM\ONEDRIVE\바탕 화면\11_2015182001\SIMPLEGAME\SIMPLEGAME\X64\DEBUG\SCNMGR.OBJ|C:\USERS\RKDQM\ONEDRIVE\바탕 화면\11_2015182001\SIMPLEGAME\SIMPLEGAME\X64\DEBUG\SIMPLEGAME.OBJ|C:\USERS\RKDQM\ONEDRIVE\바탕 화면\11_2015182001\SIMPLEGAME\SIMPLEGAME\X64\DEBUG\SOUND.OBJ|C:\USERS\RKDQM\ONEDRIVE\바탕 화면\11_2015182001\SIMPLEGAME\SIMPLEGAME\X64\DEBUG\STDAFX.OBJ
/OUT:"C:\USERS\RKDQM\ONEDRIVE\바탕 화면\11_2015182001\SIMPLEGAME\X64\DEBUG\SIMPLEGAME.EXE" /INCREMENTAL /NOLOGO /LIBPATH:.\DEPENDENCIES\X64 KERNEL32.LIB USER32.LIB GDI32.LIB WINSPOOL.LIB COMDLG32.LIB ADVAPI32.LIB SHELL32.LIB OLE32.LIB OLEAUT32.LIB UUID.LIB ODBC32.LIB ODBCCP32.LIB KERNEL32.LIB USER32.LIB GDI32.LIB WINSPOOL.LIB COMDLG32.LIB ADVAPI32.LIB SHELL32.LIB OLE32.LIB OLEAUT32.LIB UUID.LIB ODBC32.LIB ODBCCP32.LIB FREEGLUT.LIB GLEW32.LIB /MANIFEST /MANIFESTUAC:"level='asInvoker' uiAccess='false'" /manifest:embed /DEBUG:FASTLINK /PDB:"C:\USERS\RKDQM\ONEDRIVE\바탕 화면\11_2015182001\SIMPLEGAME\X64\DEBUG\SIMPLEGAME.PDB" /SUBSYSTEM:CONSOLE /TLBID:1 /DYNAMICBASE /NXCOMPAT /IMPLIB:"C:\USERS\RKDQM\ONEDRIVE\바탕 화면\11_2015182001\SIMPLEGAME\X64\DEBUG\SIMPLEGAME.LIB" /MACHINE:X64 X64\DEBUG\LOADPNG.OBJ
X64\DEBUG\OBJECT.OBJ
X64\DEBUG\PHYSICS.OBJ
X64\DEBUG\RENDERER.OBJ
X64\DEBUG\SCNMGR.OBJ
X64\DEBUG\SIMPLEGAME.OBJ
X64\DEBUG\SOUND.OBJ
X64\DEBUG\STDAFX.OBJ
